Fibonacchi[1], = 1, time=0.000000
Fibonacchi[2], = 1, time=0.000000
Fibonacchi[3], = 2, time=0.000000
Fibonacchi[4], = 3, time=0.000000
Fibonacchi[5], = 5, time=0.000000
Fibonacchi[6], = 8, time=0.000000
Fibonacchi[7], = 13, time=0.000000
Fibonacchi[8], = 21, time=0.000000
Fibonacchi[9], = 34, time=0.000000
Fibonacchi[10], = 55, time=0.000000
Fibonacchi[11], = 89, time=0.000000
Fibonacchi[12], = 144, time=0.000000
Fibonacchi[13], = 233, time=0.000000
Fibonacchi[14], = 377, time=0.000000
Fibonacchi[15], = 610, time=0.000000
Fibonacchi[16], = 987, time=0.000000
Fibonacchi[17], = 1597, time=0.000000
Fibonacchi[18], = 2584, time=0.000000
Fibonacchi[19], = 4181, time=0.000000
Fibonacchi[20], = 6765, time=0.000000
Fibonacchi[21], = 10946, time=0.000000
Fibonacchi[22], = 17711, time=0.000000
Fibonacchi[23], = 28657, time=0.000000
Fibonacchi[24], = 46368, time=0.000000
Fibonacchi[25], = 75025, time=0.000000
Fibonacchi[26], = 121393, time=0.000000
Fibonacchi[27], = 196418, time=0.015000
Fibonacchi[28], = 317811, time=0.000000
Fibonacchi[29], = 514229, time=0.000000
Fibonacchi[30], = 832040, time=0.016000
Fibonacchi[31], = 1346269, time=0.015000
Fibonacchi[32], = 2178309, time=0.047000
Fibonacchi[33], = 3524578, time=0.047000
Fibonacchi[34], = 5702887, time=0.063000
Fibonacchi[35], = 9227465, time=0.109000
Fibonacchi[36], = 14930352, time=0.188000
Fibonacchi[37], = 24157817, time=0.312000
Fibonacchi[38], = 39088169, time=0.484000
Fibonacchi[39], = 63245986, time=0.797000
Fibonacchi[40], = 102334155, time=1.266000
